<?xml version="1.0" encoding="utf-8"?>
<!-- Generator: Adobe Illustrator 23.0.4, SVG Export Plug-In . SVG Version: 6.00 Build 0)  -->
<svg version="1.1" id="Layer_1" xmlns="http://www.w3.org/2000/svg" xmlns:xlink="http://www.w3.org/1999/xlink" x="0px" y="0px"
	 width="31px" height="36px" viewBox="0 0 31 36" style="enable-background:new 0 0 31 36;" xml:space="preserve">
<style type="text/css">
	.st0{fill:#FFFFFF;}
</style>
<path class="st0" d="M0.876,8.129l2.823-5.321C3.61,14.199,6.418,22.894,12.07,28.646C18.043,34.725,25.661,36,31,36v-0.986
	c-5.149,0-12.49-1.224-18.222-7.058C7.274,22.355,4.56,13.808,4.691,2.562l4.04,5.624l0.806-0.574L4.068,0L0,7.668L0.876,8.129z
	 M4.193,1.876l0.002-0.004l0.003,0.004L4.193,1.876z"/>
</svg>
