<svg id="Logo_1_white" data-name="Logo/1/white" xmlns="http://www.w3.org/2000/svg" width="112.62" height="41.5" viewBox="0 0 112.62 41.5">
  <defs>
    <style>
      .cls-1 {
        fill: #fff;
      }

      .cls-1, .cls-2 {
        fill-rule: evenodd;
      }

      .cls-2 {
        fill-opacity: 0;
      }
    </style>
  </defs>
  <g id="Group_Copy_2" data-name="Group Copy 2">
    <path id="Fill_1" data-name="Fill 1" class="cls-1" d="M3346.36,49.455l1.85-2.649a6.906,6.906,0,0,0,5.02,2.172c1.87,0,2.75-.836,2.75-1.767,0-2.769-9.1-.835-9.1-6.827,0-2.649,2.27-4.846,5.99-4.846a8.73,8.73,0,0,1,6.16,2.22l-1.87,2.53a6.748,6.748,0,0,0-4.59-1.742c-1.43,0-2.23.621-2.23,1.575,0,2.507,9.07.812,9.07,6.756,0,2.912-2.08,5.108-6.32,5.108a9.079,9.079,0,0,1-6.73-2.53" transform="translate(-3327.19 -25.688)"/>
    <path id="Fill_3" data-name="Fill 3" class="cls-1" d="M3372.11,40.91a2.138,2.138,0,0,0-2.34-2.149h-3.56v4.273h3.56a2.133,2.133,0,0,0,2.34-2.124h0ZM3362.85,51.7V35.778h7.39a5.123,5.123,0,1,1,0,10.24h-4.03V51.7h-3.36Z" transform="translate(-3327.19 -25.688)"/>
    <path id="Fill_5" data-name="Fill 5" class="cls-1" d="M3383.76,39.168l-2.46,6.85h4.93Zm4.39,12.531-1-2.7h-6.77l-1,2.7h-3.81l6.09-15.921h4.21l6.09,15.921h-3.81Z" transform="translate(-3327.19 -25.688)"/>
    <path id="Fill_7" data-name="Fill 7" class="cls-1" d="M3403.75,40.886a2.142,2.142,0,0,0-2.35-2.124h-3.55v4.3h3.55a2.151,2.151,0,0,0,2.35-2.172h0ZM3403.41,51.7l-3.1-5.657h-2.46V51.7h-3.37V35.778h7.39a4.962,4.962,0,0,1,5.34,5.132,4.6,4.6,0,0,1-3.49,4.726l3.58,6.063h-3.89Z" transform="translate(-3327.19 -25.688)"/>
    <path id="Fill_9" data-name="Fill 9" class="cls-1" d="M3420,40.886a2.139,2.139,0,0,0-2.34-2.124h-3.56v4.3h3.56a2.148,2.148,0,0,0,2.34-2.172h0ZM3419.67,51.7l-3.1-5.657h-2.47V51.7h-3.36V35.778h7.39a4.959,4.959,0,0,1,5.33,5.132,4.6,4.6,0,0,1-3.48,4.726l3.58,6.063h-3.89Z" transform="translate(-3327.19 -25.688)"/>
    <path id="Clip_12" data-name="Clip 12" class="cls-2" d="M3327.19,67.195h112.62V25.7H3327.19v41.5Z" transform="translate(-3327.19 -25.688)"/>
    <g id="Mask_by_Clip_12" data-name="Mask by Clip 12">
      <path id="Fill_11" data-name="Fill 11" class="cls-1" d="M3346.78,67h2.3V56.149h-2.3V67Z" transform="translate(-3327.19 -25.688)"/>
      <path id="Fill_13" data-name="Fill 13" class="cls-1" d="M3359.44,67l-5.13-7.076V67h-2.29V56.149h2.35l4.99,6.816V56.149h2.3V67h-2.22Z" transform="translate(-3327.19 -25.688)"/>
      <path id="Fill_14" data-name="Fill 14" class="cls-1" d="M3369.56,62.656V56.149h2.32v6.442a2.53,2.53,0,1,0,5.06,0V56.149h2.34v6.507c0,2.684-1.59,4.538-4.86,4.538s-4.86-1.854-4.86-4.538" transform="translate(-3327.19 -25.688)"/>
      <path id="Fill_15" data-name="Fill 15" class="cls-1" d="M3389.65,67l-5.14-7.076V67h-2.29V56.149h2.36l4.99,6.816V56.149h2.29V67h-2.21Z" transform="translate(-3327.19 -25.688)"/>
      <path id="Fill_16" data-name="Fill 16" class="cls-1" d="M3394.28,61.582a5.488,5.488,0,0,1,5.75-5.612,5.02,5.02,0,0,1,4.44,2.424l-1.89,1.041a3.088,3.088,0,0,0-2.55-1.415,3.566,3.566,0,0,0,0,7.124,3.593,3.593,0,0,0,2.28-.829v-1.3h-2.84V61h5.13v4.164a5.936,5.936,0,0,1-4.57,2.034,5.5,5.5,0,0,1-5.75-5.612" transform="translate(-3327.19 -25.688)"/>
      <path id="Fill_17" data-name="Fill 17" class="cls-1" d="M3411.58,58.459l-1.68,4.668h3.36Zm2.99,8.54-0.68-1.838h-4.62L3408.59,67h-2.6l4.15-10.85h2.88L3417.17,67h-2.6Z" transform="translate(-3327.19 -25.688)"/>
      <path id="Fill_18" data-name="Fill 18" class="cls-1" d="M3425.29,59.631a1.456,1.456,0,0,0-1.6-1.448h-2.42v2.928h2.42a1.463,1.463,0,0,0,1.6-1.48h0ZM3425.07,67l-2.12-3.855h-1.68V67h-2.29V56.149h5.04a3.379,3.379,0,0,1,3.63,3.5,3.135,3.135,0,0,1-2.37,3.221L3427.71,67h-2.64Z" transform="translate(-3327.19 -25.688)"/>
      <path id="Fill_19" data-name="Fill 19" class="cls-1" d="M3437.6,67l-5.14-7.076V67h-2.29V56.149h2.36l4.99,6.816V56.149h2.29V67h-2.21Z" transform="translate(-3327.19 -25.688)"/>
      <path id="Fill_20" data-name="Fill 20" class="cls-1" d="M3349.65,32.722a38.549,38.549,0,0,1-2.97-7.023q-6.57,4.286-13.13,8.572c5.12,2.7,9.43,7.073,12.19,14.6-1.56-6.294-4.15-11.3-8.07-14.651q4.365-2.839,8.74-5.677l3.24,4.176" transform="translate(-3327.19 -25.688)"/>
      <path id="Fill_21" data-name="Fill 21" class="cls-1" d="M3339.12,29.98c-0.55-.889-1.09-1.777-1.63-2.666q-5.16,5.4-10.3,10.794a24.2,24.2,0,0,1,16.83,9.15A23.369,23.369,0,0,0,3330.51,36.5l7.38-7.341,1.23,0.825" transform="translate(-3327.19 -25.688)"/>
      <path id="Fill_22" data-name="Fill 22" class="cls-1" d="M3334.43,40.345a4.143,4.143,0,0,0-1.3.148s-0.16.29-1.3,2.524a16.789,16.789,0,0,1,11.66,4.338,17.4,17.4,0,0,0-13.59-2.482c1.56-3.244.84-1.988,2.4-5.231Z" transform="translate(-3327.19 -25.688)"/>
      <path id="Fill_23" data-name="Fill 23" class="cls-1" d="M3346.9,35.559a2.406,2.406,0,0,1-.81.737,2.091,2.091,0,0,1-1.81.177,1.736,1.736,0,0,1-.74-0.544l-0.39.218-0.22-.4,0.33-.185a0.344,0.344,0,0,1-.05-0.1c-0.03-.057-0.06-0.116-0.09-0.173l-0.34.188-0.22-.4,0.4-.225a2.031,2.031,0,0,1,1.04-2.352,2.694,2.694,0,0,1,.98-0.335l0.19,0.736a2.141,2.141,0,0,0-.73.238,1.045,1.045,0,0,0-.56.717,0.954,0.954,0,0,0,.01.473l1.48-.836,0.22,0.4-1.57.886c0.03,0.06.06,0.122,0.09,0.178,0.02,0.034.03,0.056,0.05,0.09l1.58-.889,0.22,0.4-1.49.843a0.949,0.949,0,0,0,.41.283,1.18,1.18,0,0,0,.93-0.146,1.94,1.94,0,0,0,.6-0.529Z" transform="translate(-3327.19 -25.688)"/>
      <path id="Fill_24" data-name="Fill 24" class="cls-1" d="M3436.26,40.886a2.142,2.142,0,0,0-2.35-2.124h-3.55v4.3h3.55a2.151,2.151,0,0,0,2.35-2.172h0ZM3435.92,51.7l-3.1-5.657h-2.46V51.7h-3.37V35.778h7.39a4.962,4.962,0,0,1,5.34,5.132,4.6,4.6,0,0,1-3.49,4.726l3.58,6.063h-3.89Z" transform="translate(-3327.19 -25.688)"/>
    </g>
  </g>
</svg>
