<svg width="91" height="36" viewBox="0 0 91 36" fill="none" xmlns="http://www.w3.org/2000/svg">
<path fill-rule="evenodd" clip-rule="evenodd" d="M19.2719 6.62151C18.2978 4.72604 17.3483 2.81159 16.7263 0.640015C12.969 3.07354 9.21292 5.50707 5.45569 7.94083C9.84939 10.2445 13.5462 13.9645 15.9155 20.3784C14.5788 15.018 12.3549 10.7547 8.99136 7.89953C11.4916 6.28753 13.9916 4.67657 16.4917 3.06457C17.4181 4.25033 18.3447 5.43563 19.2719 6.62151Z" fill="#36B75F"/>
<path fill-rule="evenodd" clip-rule="evenodd" d="M10.2356 4.28668C9.76859 3.52935 9.30163 2.7727 8.83494 2.01571C5.89012 5.07968 2.94477 8.14423 0 11.2091C5.63923 11.8271 10.8875 14.4014 14.4422 19.0026C12.0871 14.8412 8.00443 11.4167 2.84951 9.83664C4.96038 7.75239 7.0705 5.66813 9.18097 3.58399C9.53221 3.81822 9.88364 4.05234 10.2356 4.28668Z" fill="#36B75F"/>
<path fill-rule="evenodd" clip-rule="evenodd" d="M6.21736 13.1146C5.92327 13.0327 5.09863 13.2402 5.09863 13.2402C5.09863 13.2402 4.96072 13.4872 3.9788 15.3903C7.8703 15.3202 11.4392 16.7562 13.9873 19.0847C10.5173 16.723 6.33918 16.1317 2.33057 16.9704C3.66522 14.2075 3.04825 15.2772 4.38307 12.5152L6.21736 13.1146Z" fill="#36B75F"/>
<path d="M16.912 9.03824C16.7898 9.22634 16.545 9.48346 16.218 9.66638C15.7176 9.94675 15.151 10.0122 14.6663 9.8172C14.4368 9.7315 14.2197 9.58251 14.0316 9.35415L13.6992 9.53995L13.5088 9.19965L13.7895 9.04227C13.7765 9.01834 13.76 8.98935 13.7441 8.96082C13.7174 8.91261 13.6952 8.86211 13.6685 8.81379L13.3822 8.97405L13.1918 8.63363L13.5339 8.4422C13.4549 8.14607 13.4543 7.85685 13.5185 7.58811C13.6373 7.11827 13.9435 6.70733 14.4237 6.43859C14.7344 6.26418 15.0431 6.17951 15.2698 6.15328L15.4329 6.78015C15.271 6.80167 15.0266 6.85677 14.8015 6.9824C14.5572 7.11988 14.3755 7.32213 14.3191 7.59317C14.2901 7.70971 14.2964 7.85122 14.3299 7.99606L15.6016 7.28405L15.792 7.62447L14.4441 8.37938C14.4663 8.43023 14.4959 8.48304 14.5225 8.53078C14.5391 8.55977 14.5493 8.57876 14.5657 8.60775L15.9181 7.85007L16.1091 8.19037L14.8277 8.90801C14.9437 9.03203 15.0618 9.11072 15.184 9.14926C15.4436 9.23025 15.7242 9.16801 15.9795 9.02513C16.2147 8.89363 16.4142 8.68701 16.4914 8.57484L16.912 9.03824Z" fill="#36B75F"/>
<path d="M16.8702 35.4816V26.6837H18.7433V35.4816H16.8702Z" fill="#36B75F"/>
<path d="M28.7941 35.4816V29.1371L26.3143 35.4816H25.4965L23.0167 29.1371V35.4816H21.1437V26.6837H23.7685L25.9055 32.184L28.0422 26.6837H30.6803V35.4816H28.7941Z" fill="#36B75F"/>
<path d="M37.1301 31.9599V26.6837H39.0295V31.9071C39.0295 33.1337 39.7419 33.9779 41.1004 33.9779C42.459 33.9779 43.1581 33.1337 43.1581 31.9071V26.6837H45.0707V31.9599C45.0707 34.1363 43.7781 35.64 41.1004 35.64C38.4228 35.64 37.1301 34.1363 37.1301 31.9599Z" fill="#36B75F"/>
<path d="M52.6287 29.5065C52.6287 28.781 52.0615 28.3325 51.3229 28.3325H49.3443V30.7069H51.3229C52.0615 30.7069 52.6287 30.2582 52.6287 29.5065ZM52.444 35.4816L50.7161 32.3555H49.3443V35.4816H47.4713V26.6837H51.5866C53.4201 26.6837 54.5545 27.884 54.5545 29.5195C54.5545 31.0629 53.5652 31.9071 52.6154 32.1313L54.6072 35.4816H52.444Z" fill="#36B75F"/>
<path d="M56.5328 35.4816V26.6837H58.4192V33.8328H62.1387V35.4816H56.5328Z" fill="#36B75F"/>
<path d="M67.7052 28.5568L66.3334 32.3424H69.0768L67.7052 28.5568ZM70.1454 35.4816L69.5913 33.9912H65.8189L65.2648 35.4816H63.1412L66.5311 26.6837H68.8791L72.269 35.4816H70.1454Z" fill="#36B75F"/>
<path d="M73.3109 31.9599V26.6837H75.2103V31.9071C75.2103 33.1337 75.9225 33.9779 77.2812 33.9779C78.6399 33.9779 79.3388 33.1337 79.3388 31.9071V26.6837H81.2515V31.9599C81.2515 34.1363 79.9589 35.64 77.2812 35.64C74.6034 35.64 73.3109 34.1363 73.3109 31.9599Z" fill="#36B75F"/>
<path d="M89.0734 32.8304C89.0734 32.2764 88.6778 31.828 87.9523 31.828H85.5253V33.8328H87.9523C88.6513 33.8328 89.0734 33.4635 89.0734 32.8304ZM88.9019 29.2559C88.9019 28.715 88.5063 28.3325 87.8732 28.3325H85.5253V30.1792H87.8732C88.5063 30.1792 88.9019 29.8229 88.9019 29.2559ZM83.6522 35.4816V26.6837H88.2821C89.9571 26.6837 90.8145 27.7521 90.8145 28.9262C90.8145 30.0209 90.1287 30.7728 89.2977 30.9443C90.2474 31.0893 90.9861 31.9995 90.9861 33.0942C90.9861 34.4265 90.1154 35.4816 88.4271 35.4816H83.6522Z" fill="#36B75F"/>
<path d="M16.6985 20.9522L18.2599 18.7303C19.2007 19.711 20.6619 20.5517 22.5035 20.5517C24.0849 20.5517 24.8254 19.8511 24.8254 19.0704C24.8254 16.7485 17.1389 18.3698 17.1389 13.3455C17.1389 11.1236 19.0606 9.28202 22.2032 9.28202C24.3251 9.28202 26.0866 9.92259 27.4077 11.1437L25.8264 13.2655C24.7455 12.2647 23.3042 11.8043 21.943 11.8043C20.7419 11.8043 20.0615 12.3247 20.0615 13.1253C20.0615 15.2272 27.728 13.8059 27.728 18.7903C27.728 21.2323 25.9664 23.074 22.3834 23.074C19.8011 23.074 17.9596 22.2131 16.6985 20.9522Z" fill="#ED1366"/>
<path d="M37.4564 13.7859C37.4564 12.6649 36.5957 11.9844 35.4747 11.9844H32.4722V15.5675H35.4747C36.5957 15.5675 37.4564 14.887 37.4564 13.7859ZM29.6298 22.8338V9.4822H35.875C38.7776 9.4822 40.3589 11.4439 40.3589 13.7859C40.3589 16.1079 38.7575 18.0697 35.875 18.0697H32.4722V22.8338H29.6298Z" fill="#ED1366"/>
<path d="M46.1844 12.3247L44.1026 18.0697H48.2663L46.1844 12.3247ZM49.8876 22.8338L49.0468 20.5718H43.3219L42.4811 22.8338H39.2583L44.4027 9.4822H47.9659L53.1103 22.8338H49.8876Z" fill="#ED1366"/>
<path d="M62.1782 13.766C62.1782 12.6649 61.3175 11.9844 60.1966 11.9844H57.194V15.5876H60.1966C61.3175 15.5876 62.1782 14.907 62.1782 13.766ZM61.898 22.8338L59.2758 18.0897H57.194V22.8338H54.3514V9.4822H60.5968C63.3793 9.4822 65.1008 11.3038 65.1008 13.7859C65.1008 16.128 63.5995 17.4091 62.1582 17.7494L65.1808 22.8338H61.898Z" fill="#ED1366"/>
<path d="M67.2227 22.8338V9.4822H76.6708V11.9844H70.0652V14.7869H76.5307V17.289H70.0652V20.3316H76.6708V22.8338H67.2227Z" fill="#ED1366"/>
<path d="M88.1008 22.8338L81.7355 14.1263V22.8338H78.8929V9.4822H81.8154L88.0008 17.8695V9.4822H90.8433V22.8338H88.1008Z" fill="#ED1366"/>
</svg>
