<?xml version="1.0" encoding="utf-8"?>
<!-- Generator: Adobe Illustrator 23.0.3, SVG Export Plug-In . SVG Version: 6.00 Build 0)  -->
<svg version="1.1" id="Réteg_1" xmlns="http://www.w3.org/2000/svg" xmlns:xlink="http://www.w3.org/1999/xlink" x="0px" y="0px"
	 width="50px" height="48px" viewBox="0 0 50 48" style="enable-background:new 0 0 50 48;" xml:space="preserve">
<style type="text/css">
	.st0{fill-rule:evenodd;clip-rule:evenodd;}
</style>
<path id="new_releases_-_material" class="st0" d="M27.233,26.256V12.498h-4.465v13.758H27.233z M27.233,35.502v-4.625h-4.465v4.625
	H27.233z M50,24l-5.558,6.33l0.765,8.474l-8.17,1.872L32.787,48L25,44.638l-7.79,3.357l-4.25-7.209l-8.17-1.983l0.75-8.474L0,24
	l5.555-6.438l-0.75-8.421l8.17-1.816L17.225,0L25,3.362l7.787-3.357l4.25,7.325l8.17,1.816l-0.765,8.53L50,24z"/>
</svg>
